<?xml version="1.0" encoding="UTF-8"?>
<svg width="800px" height="800px" viewBox="-16 0 256 256" version="1.1" xmlns="http://www.w3.org/2000/svg" xmlns:xlink="http://www.w3.org/1999/xlink" preserveAspectRatio="xMidYMid">
    <g>
				<path d="M208.411532,52.276683 L127.597582,4.29643402 C117.992498,-1.43214467 106.019549,-1.43214467 96.4144654,4.29643402 L15.5843327,52.276683 C5.86154721,58.1421436 -0.0580718526,68.6904991 0.000429623687,80.0453532 L0.000429623687,175.989669 C-0.0523613478,187.338765 5.86651886,197.879657 15.5843327,203.742157 L96.3982832,251.706224 C106.004343,257.431259 117.975339,257.431259 127.581399,251.706224 L208.39535,203.742157 C218.124345,197.880703 224.050527,187.331607 223.995435,175.973487 L223.995435,80.0453532 C224.053937,68.6904991 218.134318,58.1421436 208.411532,52.276683 Z M99.2301697,246.803014 L18.4162192,198.838948 C10.4300926,193.999639 5.56585934,185.327547 5.59969728,175.989669 L5.59969728,80.0453532 C5.56264048,70.7066408 10.4277023,62.033071 18.4162192,57.1960744 L99.2301697,9.21582548 C107.095348,4.52357839 116.900517,4.52357839 124.765695,9.21582548 L205.514917,57.1960744 C212.17156,61.2279088 216.712503,67.9889997 217.926671,75.6761569 C215.240424,69.9638372 209.20446,68.3941629 202.1652,72.4397151 L125.768992,119.756494 C116.237671,125.306991 109.214593,131.569506 109.19841,143.058874 L109.19841,237.271693 C109.19841,244.149132 111.965568,248.59924 116.237671,249.909999 C114.838668,250.166379 113.420175,250.301731 111.997932,250.314554 C107.503971,250.311263 103.093756,249.098314 99.2301697,246.803014 Z" fill="#FFFFFF">

</path>
				<path d="M187.007319,185.05984 L166.920894,197.072944 C166.382945,197.289147 166.022425,197.801466 166.000535,198.380822 L166.000535,203.660774 C166.000535,204.30664 166.436494,204.564987 166.969334,204.2582 L187.362545,191.857577 C187.861962,191.483188 188.100868,190.854486 187.976118,190.242913 L187.976118,185.608826 C187.959971,185.0114 187.491719,184.753054 187.007319,185.05984 Z" fill="#000000">

</path>
				<path d="M144.262952,140.831868 C144.908817,140.508935 145.441657,140.831868 145.457803,141.752226 L145.52239,148.75987 C147.937868,147.662506 150.63266,147.335523 153.240486,147.823365 C153.741032,147.952538 153.950938,148.630697 153.757179,149.438029 L152.223247,155.5899 C152.106964,156.054178 151.867023,156.478259 151.528942,156.817045 C151.410206,156.934194 151.274035,157.032237 151.125276,157.107685 C150.94275,157.206405 150.732219,157.240546 150.52785,157.204565 C147.984993,156.641458 145.323113,157.068744 143.084247,158.399417 C139.810579,159.87411 137.670697,163.093345 137.578241,166.682645 C137.578241,169.911974 139.192905,170.800039 144.828084,170.896919 C152.271687,171.026092 155.501016,174.271568 155.581749,181.779758 C155.404525,189.616874 151.790949,196.979831 145.700003,201.914623 L145.829176,208.793094 C145.817697,209.647405 145.37394,210.437656 144.650471,210.892157 L140.581517,213.233421 C139.935651,213.556354 139.402812,213.233421 139.386665,212.329209 L139.386665,205.563765 C135.89899,207.016963 132.362875,207.356042 130.102345,206.45183 C129.682532,206.290364 129.488772,205.660645 129.666385,204.934046 L131.13573,198.717587 C131.24746,198.225629 131.499922,197.776809 131.862329,197.425856 C131.977267,197.315759 132.107853,197.223261 132.249848,197.151363 C132.460373,197.056728 132.701336,197.056728 132.911861,197.151363 C135.790274,197.931772 138.860474,197.542919 141.453436,196.069538 C145.195213,194.264929 147.626918,190.533412 147.766774,186.381551 C147.766774,182.893876 145.845323,181.440678 141.308116,181.408385 C135.446884,181.408385 130.005465,180.27812 129.892438,171.720398 C130.027305,164.244122 133.498017,157.21978 139.354372,152.570478 L139.063732,145.530541 C139.061125,144.663931 139.507025,143.857647 140.242437,143.399184 L144.262952,140.831868 Z" fill="#000000">

</path>
    </g>
</svg>